2 52
3 78
4 47
5 56
6 36
7 44
8 38
9 28
10 31
11 27
12 26
13 28
14 20
15 25
16 24
17 25
18 17
19 17
20 26
21 16
22 19
23 18
24 17
25 14
26 15
27 13
28 8
29 13
30 10
31 10
32 15
33 10
34 11
35 7
36 10
37 5
38 8
39 6
40 3
42 7
43 4
44 7
45 5
46 5
47 4
48 2
49 2
50 9
51 5
52 1
53 4
54 5
55 2
56 4
57 2
58 4
59 3
60 1
61 5
62 6
63 2
64 2
66 1
67 2
68 2
70 2
71 1
73 3
74 2
75 3
76 3
78 2
81 1
83 2
86 1
87 1
93 2
94 1
99 1
100 1
105 1
106 2
114 1
118 1
