0 999
47 998
56 997
62 996
68 995
73 994
81 993
88 992
98 991
108 990
117 989
124 988
130 987
135 986
139 985
143 984
146 983
150 982
154 981
158 980
162 979
166 978
171 977
176 976
180 975
184 974
189 973
193 972
197 971
201 970
204 969
207 968
210 967
213 966
216 965
218 964
221 963
224 962
227 961
229 960
232 959
235 958
237 957
240 956
243 955
245 954
248 953
251 952
253 951
256 950
259 949
262 948
264 947
267 946
269 945
272 944
274 943
276 942
278 941
281 940
283 939
285 938
287 937
289 936
290 935
292 934
294 933
296 932
298 931
300 930
302 929
303 928
305 927
307 926
309 925
310 924
312 923
314 922
316 921
318 920
319 919
321 918
323 917
325 916
326 915
328 914
330 913
332 912
333 911
335 910
336 909
338 908
340 907
341 906
343 905
345 904
346 903
348 902
349 901
351 900
352 899
354 898
355 897
356 896
358 895
359 894
361 893
362 892
363 891
365 890
366 889
367 888
369 887
370 886
371 885
373 884
374 883
375 882
376 881
378 880
379 879
380 878
381 877
383 876
384 875
385 874
386 873
387 872
389 871
390 870
391 869
392 868
393 867
395 866
396 865
397 864
398 863
399 862
400 861
402 860
403 859
404 858
405 857
406 856
407 855
408 854
409 853
410 852
412 851
413 850
414 849
415 848
416 847
417 846
418 845
419 844
420 843
421 842
422 841
423 840
424 839
425 838
426 837
427 836
428 835
429 834
430 833
431 832
432 831
433 830
434 829
435 828
436 827
437 826
438 825
438 824
439 823
440 822
441 821
442 820
443 819
444 818
445 817
446 816
447 815
448 814
448 813
449 812
450 811
451 810
452 809
453 808
454 807
454 806
455 805
456 804
457 803
458 802
459 801
460 800
460 799
461 798
462 797
463 796
464 795
465 794
465 793
466 792
467 791
468 790
469 789
470 788
470 787
471 786
472 785
473 784
474 783
474 782
475 781
476 780
477 779
477 778
478 777
479 776
480 775
481 774
481 773
482 772
483 771
484 770
484 769
485 768
486 767
487 766
487 765
488 764
489 763
489 762
490 761
491 760
492 759
492 758
493 757
494 756
495 755
495 754
496 753
497 752
497 751
498 750
499 749
499 748
500 747
501 746
502 745
502 744
503 743
504 742
504 741
505 740
506 739
506 738
507 737
508 736
508 735
509 734
510 733
510 732
511 731
512 730
512 729
513 728
514 727
514 726
515 725
516 724
516 723
517 722
517 721
518 720
519 719
519 718
520 717
521 716
521 715
522 714
523 713
523 712
524 711
525 710
525 709
526 708
526 707
527 706
528 705
528 704
529 703
529 702
530 701
531 700
531 699
532 698
533 697
533 696
534 695
534 694
535 693
536 692
536 691
537 690
537 689
538 688
539 687
539 686
540 685
540 684
541 683
541 682
542 681
543 680
543 679
544 678
544 677
545 676
546 675
546 674
547 673
547 672
548 671
548 670
549 669
550 668
550 667
551 666
551 665
552 664
552 663
553 662
554 661
554 660
555 659
555 658
556 657
556 656
557 655
557 654
558 653
558 652
559 651
560 650
560 649
561 648
561 647
562 646
562 645
563 644
563 643
564 642
565 641
565 640
566 639
566 638
567 637
567 636
568 635
568 634
569 633
569 632
570 631
570 630
571 629
571 628
572 627
573 626
573 625
574 624
574 623
575 622
575 621
576 620
576 619
577 618
577 617
578 616
578 615
579 614
579 613
580 612
580 611
581 610
581 609
582 608
582 607
583 606
583 605
584 604
584 603
585 602
585 601
586 600
586 599
587 598
587 597
588 596
588 595
589 594
589 593
590 592
590 591
591 590
591 589
592 588
592 587
593 586
593 585
594 584
594 583
595 582
595 581
596 580
596 579
597 578
597 577
598 576
598 575
598 574
599 573
599 572
600 571
600 570
601 569
601 568
602 567
602 566
603 565
603 564
604 563
604 562
605 561
605 560
606 559
606 558
607 557
607 556
608 555
608 554
608 553
609 552
609 551
610 550
610 549
611 548
611 547
612 546
612 545
613 544
613 543
614 542
614 541
614 540
615 539
615 538
616 537
616 536
617 535
617 534
618 533
618 532
618 531
619 530
619 529
620 528
620 527
621 526
621 525
622 524
622 523
622 522
623 521
623 520
624 519
624 518
625 517
625 516
625 515
626 514
626 513
627 512
627 511
628 510
628 509
629 508
629 507
629 506
630 505
630 504
631 503
631 502
632 501
632 500
632 499
633 498
633 497
634 496
634 495
635 494
635 493
636 492
636 491
636 490
637 489
637 488
638 487
638 486
639 485
639 484
639 483
640 482
640 481
641 480
641 479
642 478
642 477
642 476
643 475
643 474
644 473
644 472
645 471
645 470
645 469
646 468
646 467
647 466
647 465
648 464
648 463
648 462
649 461
649 460
650 459
650 458
650 457
651 456
651 455
652 454
652 453
653 452
653 451
653 450
654 449
654 448
655 447
655 446
655 445
656 444
656 443
657 442
657 441
658 440
658 439
658 438
659 437
659 436
660 435
660 434
660 433
661 432
661 431
662 430
662 429
662 428
663 427
663 426
664 425
664 424
664 423
665 422
665 421
666 420
666 419
667 418
667 417
667 416
668 415
668 414
668 413
669 412
669 411
670 410
670 409
670 408
671 407
671 406
672 405
672 404
672 403
673 402
673 401
674 400
674 399
674 398
675 397
675 396
676 395
676 394
676 393
677 392
677 391
677 390
678 389
678 388
679 387
679 386
679 385
680 384
680 383
681 382
681 381
681 380
682 379
682 378
683 377
683 376
683 375
684 374
684 373
684 372
685 371
685 370
686 369
686 368
686 367
687 366
687 365
688 364
688 363
688 362
689 361
689 360
689 359
690 358
690 357
691 356
691 355
691 354
692 353
692 352
693 351
693 350
693 349
694 348
694 347
694 346
695 345
695 344
696 343
696 342
696 341
697 340
697 339
698 338
698 337
698 336
699 335
699 334
700 333
700 332
700 331
701 330
701 329
702 328
702 327
702 326
703 325
703 324
704 323
704 322
704 321
705 320
705 319
705 318
706 317
706 316
707 315
707 314
707 313
708 312
708 311
709 310
709 309
709 308
710 307
710 306
711 305
711 304
711 303
712 302
712 301
713 300
713 299
713 298
714 297
714 296
715 295
715 294
715 293
716 292
716 291
717 290
717 289
718 288
718 287
718 286
719 285
719 284
720 283
720 282
720 281
721 280
721 279
722 278
722 277
722 276
723 275
723 274
724 273
724 272
724 271
725 270
725 269
726 268
726 267
726 266
727 265
727 264
728 263
728 262
728 261
729 260
729 259
730 258
730 257
731 256
731 255
731 254
732 253
732 252
733 251
733 250
733 249
734 248
734 247
735 246
735 245
735 244
736 243
736 242
737 241
737 240
737 239
738 238
738 237
739 236
739 235
740 234
740 233
740 232
741 231
741 230
742 229
742 228
743 227
743 226
743 225
744 224
744 223
745 222
745 221
745 220
746 219
746 218
747 217
747 216
748 215
748 214
748 213
749 212
749 211
750 210
750 209
751 208
751 207
751 206
752 205
752 204
753 203
753 202
754 201
754 200
755 199
755 198
755 197
756 196
756 195
757 194
757 193
758 192
758 191
759 190
759 189
759 188
760 187
760 186
761 185
761 184
762 183
762 182
763 181
763 180
764 179
764 178
764 177
765 176
765 175
766 174
766 173
767 172
767 171
768 170
768 169
769 168
769 167
770 166
770 165
771 164
771 163
772 162
772 161
773 160
773 159
774 158
774 157
775 156
775 155
776 154
776 153
777 152
778 151
778 150
779 149
779 148
780 147
780 146
781 145
781 144
782 143
782 142
783 141
784 140
784 139
785 138
785 137
786 136
786 135
787 134
788 133
788 132
789 131
789 130
790 129
790 128
791 127
792 126
792 125
793 124
793 123
794 122
795 121
795 120
796 119
797 118
797 117
798 116
799 115
799 114
800 113
801 112
801 111
802 110
803 109
803 108
804 107
805 106
805 105
806 104
807 103
807 102
808 101
809 100
809 99
810 98
811 97
811 96
812 95
813 94
814 93
814 92
815 91
816 90
817 89
817 88
818 87
819 86
820 85
820 84
821 83
822 82
823 81
823 80
824 79
825 78
826 77
827 76
827 75
828 74
829 73
830 72
831 71
832 70
833 69
833 68
834 67
835 66
836 65
837 64
838 63
839 62
840 61
841 60
842 59
843 58
844 57
845 56
846 55
847 54
848 53
849 52
850 51
851 50
852 49
853 48
854 47
855 46
856 45
857 44
859 43
860 42
861 41
862 40
863 39
865 38
866 37
867 36
869 35
870 34
871 33
873 32
874 31
876 30
877 29
879 28
880 27
882 26
883 25
885 24
887 23
888 22
890 21
892 20
894 19
896 18
898 17
900 16
902 15
904 14
906 13
908 12
911 11
913 10
916 9
919 8
922 7
925 6
928 5
932 4
936 3
942 2
948 1
957 0
