0 999
53 998
77 997
106 996
129 995
148 994
163 993
177 992
188 991
198 990
207 989
215 988
222 987
228 986
234 985
239 984
245 983
249 982
254 981
258 980
262 979
266 978
270 977
274 976
277 975
281 974
284 973
287 972
290 971
293 970
296 969
299 968
301 967
304 966
306 965
309 964
311 963
314 962
316 961
318 960
320 959
322 958
325 957
327 956
329 955
331 954
333 953
335 952
336 951
338 950
340 949
342 948
344 947
345 946
347 945
349 944
350 943
352 942
353 941
355 940
357 939
358 938
360 937
361 936
362 935
364 934
365 933
367 932
368 931
370 930
371 929
372 928
373 927
375 926
376 925
377 924
379 923
380 922
381 921
382 920
384 919
385 918
386 917
387 916
388 915
389 914
391 913
392 912
393 911
394 910
395 909
396 908
397 907
398 906
399 905
400 904
401 903
402 902
403 901
404 900
405 899
406 898
407 897
408 896
409 895
410 894
411 893
412 892
413 891
414 890
415 889
415 888
416 887
417 886
418 885
419 884
420 883
421 882
422 881
423 880
423 879
424 878
425 877
426 876
427 875
428 874
429 873
429 872
430 871
431 870
432 869
433 868
433 867
434 866
435 865
436 864
436 863
437 862
438 861
439 860
439 859
440 858
441 857
442 856
442 855
443 854
444 853
445 852
445 851
446 850
447 849
447 848
448 847
449 846
450 845
450 844
451 843
452 842
452 841
453 840
454 839
455 838
455 837
456 836
457 835
457 834
458 833
458 832
459 831
460 830
460 829
461 828
462 827
462 826
463 825
464 824
464 823
465 822
465 821
466 820
467 819
467 818
468 817
469 816
469 815
470 814
470 813
471 812
472 811
472 810
473 809
474 808
474 807
475 806
475 805
476 804
477 803
477 802
478 801
478 800
479 799
479 798
480 797
481 796
481 795
482 794
482 793
483 792
483 791
484 790
485 789
485 788
486 787
486 786
487 785
487 784
488 783
488 782
489 781
490 780
490 779
491 778
491 777
492 776
492 775
493 774
493 773
494 772
494 771
495 770
495 769
496 768
497 767
497 766
498 765
498 764
499 763
499 762
500 761
500 760
501 759
501 758
502 757
502 756
503 755
503 754
504 753
504 752
505 751
505 750
506 749
506 748
507 747
507 746
508 745
508 744
509 743
509 742
510 741
510 740
511 739
511 738
512 737
512 736
513 735
513 734
514 733
514 732
515 731
515 730
516 729
516 728
517 727
517 726
517 725
518 724
518 723
519 722
519 721
520 720
520 719
521 718
521 717
522 716
522 715
523 714
523 713
524 712
524 711
525 710
525 709
525 708
526 707
526 706
527 705
527 704
528 703
528 702
529 701
529 700
530 699
530 698
530 697
531 696
531 695
532 694
532 693
533 692
533 691
533 690
534 689
534 688
535 687
535 686
536 685
536 684
537 683
537 682
537 681
538 680
538 679
539 678
539 677
540 676
540 675
541 674
541 673
541 672
542 671
542 670
543 669
543 668
544 667
544 666
544 665
545 664
545 663
546 662
546 661
546 660
547 659
547 658
548 657
548 656
549 655
549 654
549 653
550 652
550 651
551 650
551 649
551 648
552 647
552 646
553 645
553 644
554 643
554 642
554 641
555 640
555 639
556 638
556 637
556 636
557 635
557 634
558 633
558 632
558 631
559 630
559 629
560 628
560 627
561 626
561 625
561 624
562 623
562 622
563 621
563 620
563 619
564 618
564 617
565 616
565 615
565 614
566 613
566 612
567 611
567 610
567 609
568 608
568 607
569 606
569 605
569 604
570 603
570 602
570 601
571 600
571 599
572 598
572 597
572 596
573 595
573 594
574 593
574 592
574 591
575 590
575 589
576 588
576 587
576 586
577 585
577 584
577 583
578 582
578 581
579 580
579 579
579 578
580 577
580 576
581 575
581 574
581 573
582 572
582 571
582 570
583 569
583 568
584 567
584 566
584 565
585 564
585 563
585 562
586 561
586 560
587 559
587 558
587 557
588 556
588 555
588 554
589 553
589 552
590 551
590 550
590 549
591 548
591 547
591 546
592 545
592 544
593 543
593 542
593 541
594 540
594 539
594 538
595 537
595 536
596 535
596 534
596 533
597 532
597 531
597 530
598 529
598 528
599 527
599 526
599 525
600 524
600 523
600 522
601 521
601 520
601 519
602 518
602 517
603 516
603 515
603 514
604 513
604 512
604 511
605 510
605 509
605 508
606 507
606 506
607 505
607 504
607 503
608 502
608 501
608 500
609 499
609 498
609 497
610 496
610 495
611 494
611 493
611 492
612 491
612 490
612 489
613 488
613 487
613 486
614 485
614 484
614 483
615 482
615 481
616 480
616 479
616 478
617 477
617 476
617 475
618 474
618 473
618 472
619 471
619 470
619 469
620 468
620 467
621 466
621 465
621 464
622 463
622 462
622 461
623 460
623 459
623 458
624 457
624 456
624 455
625 454
625 453
626 452
626 451
626 450
627 449
627 448
627 447
628 446
628 445
628 444
629 443
629 442
629 441
630 440
630 439
630 438
631 437
631 436
632 435
632 434
632 433
633 432
633 431
633 430
634 429
634 428
634 427
635 426
635 425
635 424
636 423
636 422
636 421
637 420
637 419
637 418
638 417
638 416
638 415
639 414
639 413
640 412
640 411
640 410
641 409
641 408
641 407
642 406
642 405
642 404
643 403
643 402
643 401
644 400
644 399
645 398
645 397
645 396
646 395
646 394
646 393
647 392
647 391
647 390
648 389
648 388
648 387
649 386
649 385
649 384
650 383
650 382
650 381
651 380
651 379
651 378
652 377
652 376
652 375
653 374
653 373
653 372
654 371
654 370
654 369
655 368
655 367
656 366
656 365
656 364
657 363
657 362
657 361
658 360
658 359
658 358
659 357
659 356
659 355
660 354
660 353
660 352
661 351
661 350
661 349
662 348
662 347
662 346
663 345
663 344
663 343
664 342
664 341
665 340
665 339
665 338
666 337
666 336
666 335
667 334
667 333
667 332
668 331
668 330
668 329
669 328
669 327
669 326
670 325
670 324
670 323
671 322
671 321
671 320
672 319
672 318
673 317
673 316
673 315
674 314
674 313
674 312
675 311
675 310
675 309
676 308
676 307
676 306
677 305
677 304
677 303
678 302
678 301
678 300
679 299
679 298
680 297
680 296
680 295
681 294
681 293
681 292
682 291
682 290
682 289
683 288
683 287
683 286
684 285
684 284
684 283
685 282
685 281
686 280
686 279
686 278
687 277
687 276
687 275
688 274
688 273
688 272
689 271
689 270
690 269
690 268
690 267
691 266
691 265
691 264
692 263
692 262
692 261
693 260
693 259
693 258
694 257
694 256
695 255
695 254
695 253
696 252
696 251
696 250
697 249
697 248
698 247
698 246
698 245
699 244
699 243
699 242
700 241
700 240
701 239
701 238
701 237
702 236
702 235
702 234
703 233
703 232
704 231
704 230
704 229
705 228
705 227
705 226
706 225
706 224
707 223
707 222
707 221
708 220
708 219
708 218
709 217
709 216
710 215
710 214
710 213
711 212
711 211
712 210
712 209
712 208
713 207
713 206
714 205
714 204
714 203
715 202
715 201
716 200
716 199
716 198
717 197
717 196
718 195
718 194
718 193
719 192
719 191
720 190
720 189
720 188
721 187
721 186
722 185
722 184
723 183
723 182
723 181
724 180
724 179
725 178
725 177
726 176
726 175
726 174
727 173
727 172
728 171
728 170
728 169
729 168
729 167
730 166
730 165
731 164
731 163
732 162
732 161
733 160
733 159
733 158
734 157
734 156
735 155
735 154
736 153
736 152
737 151
737 150
738 149
738 148
739 147
739 146
740 145
740 144
741 143
741 142
742 141
742 140
743 139
743 138
744 137
744 136
745 135
745 134
746 133
746 132
747 131
747 130
748 129
748 128
749 127
749 126
750 125
750 124
751 123
752 122
752 121
753 120
753 119
754 118
754 117
755 116
755 115
756 114
756 113
757 112
758 111
758 110
759 109
759 108
760 107
760 106
761 105
762 104
762 103
763 102
763 101
764 100
765 99
765 98
766 97
767 96
767 95
768 94
769 93
769 92
770 91
771 90
771 89
772 88
773 87
773 86
774 85
775 84
775 83
776 82
777 81
777 80
778 79
779 78
780 77
780 76
781 75
782 74
783 73
783 72
784 71
785 70
786 69
786 68
787 67
788 66
789 65
790 64
791 63
792 62
792 61
793 60
794 59
795 58
796 57
797 56
798 55
799 54
800 53
801 52
801 51
802 50
803 49
804 48
805 47
806 46
807 45
809 44
810 43
811 42
812 41
813 40
814 39
815 38
816 37
817 36
818 35
820 34
821 33
822 32
823 31
825 30
826 29
827 28
829 27
830 26
831 25
833 24
834 23
836 22
838 21
839 20
841 19
842 18
844 17
846 16
848 15
850 14
852 13
854 12
856 11
859 10
861 9
864 8
866 7
869 6
873 5
877 4
881 3
887 2
894 1
905 0
