0 999
47 998
56 997
62 996
67 995
72 994
77 993
82 992
88 991
96 990
105 989
113 988
121 987
128 986
133 985
137 984
140 983
144 982
147 981
150 980
153 979
155 978
159 977
162 976
165 975
168 974
172 973
176 972
179 971
183 970
187 969
191 968
195 967
199 966
203 965
206 964
209 963
212 962
215 961
217 960
220 959
222 958
224 957
227 956
229 955
231 954
233 953
235 952
237 951
239 950
241 949
244 948
246 947
248 946
250 945
253 944
255 943
257 942
260 941
262 940
265 939
267 938
270 937
272 936
274 935
277 934
279 933
281 932
283 931
286 930
288 929
290 928
292 927
294 926
296 925
297 924
299 923
301 922
303 921
304 920
306 919
308 918
309 917
311 916
313 915
314 914
316 913
317 912
319 911
320 910
322 909
324 908
325 907
327 906
329 905
330 904
332 903
333 902
335 901
336 900
338 899
340 898
341 897
343 896
345 895
347 894
348 893
350 892
352 891
353 890
355 889
357 888
358 887
360 886
361 885
363 884
364 883
366 882
368 881
369 880
371 879
372 878
374 877
375 876
376 875
378 874
379 873
380 872
382 871
383 870
385 869
386 868
387 867
389 866
390 865
391 864
393 863
394 862
395 861
397 860
398 859
399 858
401 857
402 856
403 855
404 854
406 853
407 852
408 851
410 850
411 849
412 848
414 847
415 846
416 845
417 844
419 843
420 842
421 841
422 840
424 839
425 838
426 837
427 836
429 835
430 834
431 833
433 832
434 831
435 830
436 829
438 828
439 827
440 826
442 825
443 824
444 823
445 822
447 821
448 820
449 819
450 818
451 817
453 816
454 815
455 814
456 813
457 812
459 811
460 810
461 809
462 808
463 807
464 806
466 805
467 804
468 803
469 802
470 801
471 800
472 799
473 798
475 797
476 796
477 795
478 794
479 793
480 792
481 791
482 790
483 789
484 788
485 787
486 786
487 785
488 784
489 783
490 782
491 781
492 780
493 779
494 778
496 777
497 776
498 775
499 774
500 773
501 772
502 771
503 770
504 769
505 768
506 767
507 766
508 765
509 764
511 763
512 762
513 761
514 760
515 759
516 758
517 757
518 756
519 755
520 754
521 753
522 752
523 751
524 750
525 749
526 748
527 747
528 746
529 745
530 744
531 743
532 742
533 741
534 740
535 739
536 738
537 737
538 736
539 735
540 734
541 733
542 732
543 731
544 730
545 729
546 728
547 727
548 726
549 725
550 724
551 723
552 722
553 721
554 720
555 719
555 718
556 717
557 716
558 715
559 714
560 713
561 712
562 711
563 710
564 709
564 708
565 707
566 706
567 705
568 704
569 703
570 702
571 701
572 700
573 699
573 698
574 697
575 696
576 695
577 694
578 693
579 692
580 691
581 690
581 689
582 688
583 687
584 686
585 685
586 684
587 683
588 682
589 681
590 680
590 679
591 678
592 677
593 676
594 675
595 674
596 673
597 672
598 671
599 670
599 669
600 668
601 667
602 666
603 665
604 664
605 663
606 662
607 661
607 660
608 659
609 658
610 657
611 656
612 655
613 654
613 653
614 652
615 651
616 650
617 649
618 648
619 647
619 646
620 645
621 644
622 643
623 642
623 641
624 640
625 639
626 638
627 637
627 636
628 635
629 634
630 633
631 632
631 631
632 630
633 629
634 628
635 627
636 626
636 625
637 624
638 623
639 622
640 621
640 620
641 619
642 618
643 617
643 616
644 615
645 614
646 613
647 612
647 611
648 610
649 609
650 608
651 607
651 606
652 605
653 604
654 603
655 602
655 601
656 600
657 599
658 598
659 597
659 596
660 595
661 594
662 593
663 592
663 591
664 590
665 589
666 588
667 587
667 586
668 585
669 584
670 583
671 582
671 581
672 580
673 579
674 578
675 577
675 576
676 575
677 574
678 573
679 572
679 571
680 570
681 569
682 568
683 567
683 566
684 565
685 564
686 563
686 562
687 561
688 560
689 559
689 558
690 557
691 556
692 555
692 554
693 553
694 552
695 551
696 550
696 549
697 548
698 547
698 546
699 545
700 544
701 543
701 542
702 541
703 540
704 539
704 538
705 537
706 536
706 535
707 534
708 533
709 532
709 531
710 530
711 529
712 528
712 527
713 526
714 525
714 524
715 523
716 522
717 521
717 520
718 519
719 518
719 517
720 516
721 515
722 514
722 513
723 512
724 511
724 510
725 509
726 508
726 507
727 506
728 505
729 504
729 503
730 502
731 501
732 500
732 499
733 498
734 497
734 496
735 495
736 494
736 493
737 492
738 491
739 490
739 489
740 488
741 487
742 486
742 485
743 484
744 483
744 482
745 481
746 480
746 479
747 478
748 477
749 476
749 475
750 474
751 473
751 472
752 471
753 470
753 469
754 468
755 467
756 466
756 465
757 464
758 463
758 462
759 461
760 460
761 459
761 458
762 457
763 456
763 455
764 454
765 453
765 452
766 451
767 450
767 449
768 448
769 447
769 446
770 445
771 444
772 443
772 442
773 441
774 440
774 439
775 438
776 437
776 436
777 435
778 434
778 433
779 432
780 431
780 430
781 429
782 428
782 427
783 426
784 425
784 424
785 423
785 422
786 421
787 420
787 419
788 418
789 417
789 416
790 415
791 414
791 413
792 412
793 411
793 410
794 409
795 408
795 407
796 406
796 405
797 404
798 403
798 402
799 401
800 400
800 399
801 398
802 397
802 396
803 395
804 394
804 393
805 392
805 391
806 390
807 389
807 388
808 387
809 386
809 385
810 384
811 383
811 382
812 381
812 380
813 379
814 378
814 377
815 376
816 375
816 374
817 373
818 372
818 371
819 370
819 369
820 368
821 367
821 366
822 365
823 364
823 363
824 362
825 361
825 360
826 359
826 358
827 357
828 356
828 355
829 354
830 353
830 352
831 351
832 350
832 349
833 348
833 347
834 346
835 345
835 344
836 343
836 342
837 341
838 340
838 339
839 338
840 337
840 336
841 335
841 334
842 333
843 332
843 331
844 330
845 329
845 328
846 327
846 326
847 325
848 324
848 323
849 322
849 321
850 320
851 319
851 318
852 317
852 316
853 315
854 314
854 313
855 312
855 311
856 310
857 309
857 308
858 307
858 306
859 305
860 304
860 303
861 302
861 301
862 300
863 299
863 298
864 297
864 296
865 295
865 294
866 293
867 292
867 291
868 290
868 289
869 288
870 287
870 286
871 285
871 284
872 283
873 282
873 281
874 280
874 279
875 278
875 277
876 276
877 275
877 274
878 273
878 272
879 271
880 270
880 269
881 268
881 267
882 266
882 265
883 264
884 263
884 262
885 261
885 260
886 259
887 258
887 257
888 256
888 255
889 254
890 253
890 252
891 251
891 250
892 249
893 248
893 247
894 246
894 245
895 244
896 243
896 242
897 241
897 240
898 239
899 238
899 237
900 236
901 235
901 234
902 233
902 232
903 231
904 230
904 229
905 228
906 227
906 226
907 225
908 224
908 223
909 222
910 221
910 220
911 219
912 218
912 217
913 216
914 215
914 214
915 213
916 212
916 211
917 210
917 209
918 208
919 207
920 206
920 205
921 204
922 203
922 202
923 201
924 200
925 199
925 198
926 197
927 196
927 195
928 194
929 193
929 192
930 191
931 190
932 189
932 188
933 187
934 186
935 185
935 184
936 183
937 182
938 181
938 180
939 179
940 178
941 177
941 176
942 175
943 174
944 173
945 172
945 171
946 170
947 169
948 168
949 167
950 166
950 165
951 164
952 163
953 162
954 161
955 160
955 159
956 158
957 157
958 156
959 155
960 154
961 153
961 152
962 151
963 150
964 149
965 148
966 147
967 146
968 145
969 144
970 143
970 142
971 141
972 140
973 139
974 138
975 137
976 136
977 135
978 134
979 133
980 132
981 131
982 130
983 129
984 128
985 127
986 126
987 125
989 124
990 123
991 122
992 121
993 120
994 119
995 118
996 117
997 116
998 115
999 114
1000 113
1001 112
1002 111
1003 110
1005 109
1006 108
1007 107
1008 106
1009 105
1010 104
1011 103
1012 102
1014 101
1015 100
1016 99
1017 98
1018 97
1020 96
1021 95
1022 94
1023 93
1025 92
1026 91
1027 90
1029 89
1030 88
1031 87
1032 86
1034 85
1035 84
1036 83
1038 82
1039 81
1041 80
1042 79
1043 78
1045 77
1046 76
1048 75
1049 74
1051 73
1052 72
1054 71
1055 70
1057 69
1058 68
1060 67
1061 66
1063 65
1064 64
1066 63
1067 62
1069 61
1070 60
1072 59
1074 58
1075 57
1077 56
1079 55
1081 54
1082 53
1084 52
1086 51
1088 50
1090 49
1092 48
1093 47
1095 46
1097 45
1099 44
1101 43
1103 42
1105 41
1107 40
1109 39
1111 38
1113 37
1115 36
1117 35
1120 34
1122 33
1124 32
1127 31
1129 30
1131 29
1134 28
1136 27
1138 26
1141 25
1144 24
1146 23
1149 22
1152 21
1155 20
1158 19
1161 18
1164 17
1167 16
1171 15
1174 14
1178 13
1181 12
1185 11
1189 10
1193 9
1197 8
1202 7
1207 6
1211 5
1217 4
1223 3
1229 2
1238 1
1248 0
